<?xml version="1.0" encoding="UTF-8" standalone="no"?>
<svg
   xmlns:dc="http://purl.org/dc/elements/1.1/"
   xmlns:cc="http://creativecommons.org/ns#"
   xmlns:rdf="http://www.w3.org/1999/02/22-rdf-syntax-ns#"
   xmlns:svg="http://www.w3.org/2000/svg"
   xmlns="http://www.w3.org/2000/svg"
   xmlns:sodipodi="http://sodipodi.sourceforge.net/DTD/sodipodi-0.dtd"
   xmlns:inkscape="http://www.inkscape.org/namespaces/inkscape"
   height="600"
   id="svg2"
   version="1.1"
   width="800"
   sodipodi:docname="persistent2.svg"
   inkscape:version="0.48.4 r9939">
  <defs
     id="defs4">
    <marker
       inkscape:stockid="Arrow2Mend"
       orient="auto"
       refY="0.0"
       refX="0.0"
       id="Arrow2Mend"
       style="overflow:visible;">
      <path
         id="path3804"
         style="fill-rule:evenodd;stroke-width:0.62500000;stroke-linejoin:round;"
         d="M 8.7185878,4.0337352 L -2.2072895,0.016013256 L 8.7185884,-4.0017078 C 6.9730900,-1.6296469 6.9831476,1.6157441 8.7185878,4.0337352 z "
         transform="scale(0.6) rotate(180) translate(0,0)" />
    </marker>
    <marker
       inkscape:stockid="Arrow2Lend"
       orient="auto"
       refY="0.0"
       refX="0.0"
       id="Arrow2Lend"
       style="overflow:visible;">
      <path
         id="path3798"
         style="fill-rule:evenodd;stroke-width:0.62500000;stroke-linejoin:round;"
         d="M 8.7185878,4.0337352 L -2.2072895,0.016013256 L 8.7185884,-4.0017078 C 6.9730900,-1.6296469 6.9831476,1.6157441 8.7185878,4.0337352 z "
         transform="scale(1.1) rotate(180) translate(1,0)" />
    </marker>
    <marker
       inkscape:stockid="Arrow1Lend"
       orient="auto"
       refY="0.0"
       refX="0.0"
       id="Arrow1Lend"
       style="overflow:visible;">
      <path
         id="path3780"
         d="M 0.0,0.0 L 5.0,-5.0 L -12.5,0.0 L 5.0,5.0 L 0.0,0.0 z "
         style="fill-rule:evenodd;stroke:#000000;stroke-width:1.0pt;"
         transform="scale(0.8) rotate(180) translate(12.5,0)" />
    </marker>
  </defs>
  <sodipodi:namedview
     bordercolor="#666666"
     borderopacity="1.0"
     id="base"
     pagecolor="#ffffff"
     showgrid="false"
     inkscape:current-layer="layer1"
     inkscape:cx="434.80277"
     inkscape:cy="293.97835"
     inkscape:document-units="px"
     inkscape:pageopacity="0.0"
     inkscape:pageshadow="2"
     inkscape:window-height="876"
     inkscape:window-maximized="1"
     inkscape:window-width="1551"
     inkscape:window-x="49"
     inkscape:window-y="24"
     inkscape:zoom="0.98994949" />
  <metadata
     id="metadata7">
    <rdf:RDF>
      <cc:Work
         rdf:about="">
        <dc:format>image/svg+xml</dc:format>
        <dc:type
           rdf:resource="http://purl.org/dc/dcmitype/StillImage" />
        <dc:title></dc:title>
      </cc:Work>
    </rdf:RDF>
  </metadata>
  <g
     id="layer1"
     transform="translate(0,-452.36218)"
     inkscape:groupmode="layer"
     inkscape:label="Layer 1">
    <g
       id="g4603">
      <path
         inkscape:connector-curvature="0"
         sodipodi:nodetypes="zssssssz"
         transform="translate(0,452.36218)"
         stroke-width="1px"
         stroke-opacity="1"
         stroke-linejoin="miter"
         stroke-linecap="butt"
         stroke="#000000"
         id="path2985"
         fill="none"
         d="m 128.68676,253.3759 c -23.80602,1.63778 -81.20959,11.25345 -79.189285,64.79154 2.020305,53.53808 35.41128,108.65454 74.751285,83.84266 54.10009,-34.12111 54.54824,-40.4061 94.95434,-2.0203 40.4061,38.38579 100.0051,9.09137 47.47717,-46.46702 -52.52793,-55.55839 -14.57096,-74.50524 -8.08122,-101.01526 12.88688,-52.64177 -72.80277,-70.29226 -94.01598,-51.09936 -21.2132,19.1929 -12.09029,50.32996 -35.89631,51.96774 z" />
      <g
         transform="matrix(1.4399776,0,0,1.4399776,-22.499834,-316.56379)"
         id="g2993">
        <path
           sodipodi:type="arc"
           sodipodi:ry="16.071428"
           sodipodi:rx="16.071428"
           sodipodi:cy="309.64285"
           sodipodi:cx="92.14286"
           transform="translate(0.32226344,452.33149)"
           stroke="none"
           id="path2987"
           fill-rule="evenodd"
           fill-opacity="1"
           fill="#3333b3"
           d="m 108.21429,309.64285 c 0,8.87601 -7.19542,16.07143 -16.07143,16.07143 -8.876004,0 -16.071428,-7.19542 -16.071428,-16.07143 0,-8.876 7.195424,-16.07143 16.071428,-16.07143 8.87601,0 16.07143,7.19543 16.07143,16.07143 z" />
        <g
           style="font-size:32.71551895000000343px;font-style:normal;font-variant:normal;font-weight:normal;font-stretch:normal;line-height:125%;letter-spacing:0px;word-spacing:0px;fill:#ffffff;fill-opacity:1;stroke:none;font-family:DejaVu Sans;-inkscape-font-specification:DejaVu Sans"
           id="text2989">
          <path
             d="m 93.01624,762.21396 c -1.384454,0 -2.507984,0.33546 -3.370593,1.00638 -0.862621,0.67093 -1.293929,1.40043 -1.293925,2.18849 l 0,0.54313 c 0.0213,0.1278 0.03195,0.23429 0.03195,0.31949 -4e-6,0.51118 0.223637,0.94249 0.670924,1.29392 0.457926,0.35144 0.910533,0.52716 1.357822,0.52716 l 0.51118,0 c 0.702865,0 1.496258,-0.30884 2.380182,-0.92652 0.638965,-0.44728 0.958452,-1.01171 0.958462,-1.69328 0.02129,-0.12779 0.03194,-0.22364 0.03195,-0.28754 l 0.03195,-0.41533 0,-0.49521 0.01597,-0.30351 0,-1.10224 c -1e-5,-0.46857 -0.138455,-0.70286 -0.415334,-0.70287 l -0.399359,0 c -0.191702,0.032 -0.362095,0.0479 -0.51118,0.0479 m -1.357822,-8.17888 0.399359,0 c 2.225753,10e-6 3.748642,0.67626 4.568671,2.02874 0.500518,0.83068 0.750783,2.75825 0.750796,5.78272 -1.3e-5,3.02449 0.04258,4.6805 0.127795,4.96804 0.138431,0.47923 0.441944,0.79872 0.910539,0.95846 0.766755,0.26624 1.15014,0.44728 1.150155,0.54313 l 0,0.23961 c -1.5e-5,0.21299 -0.244955,0.46326 -0.734821,0.7508 -0.489895,0.28754 -1.214066,0.43131 -2.172515,0.43131 -0.55379,0 -1.05432,-0.23962 -1.501591,-0.71885 -0.447293,-0.48988 -0.740156,-0.73482 -0.878591,-0.73482 -0.01066,0 -0.601711,0.27156 -1.773155,0.81469 -1.171462,0.54313 -2.09265,0.81469 -2.763567,0.81469 l -0.750796,0 c -1.022364,0 -1.884979,-0.35676 -2.587848,-1.07028 -0.692225,-0.72417 -1.038336,-1.50691 -1.038335,-2.34823 l 0,-0.39936 c -10e-7,-1.34184 0.505854,-2.41745 1.517566,-3.22683 0.692219,-0.55377 1.687954,-1.0117 2.987208,-1.37379 0.149088,-0.0426 0.734815,-0.17039 1.757181,-0.38339 1.022352,-0.22363 1.645352,-0.3887 1.869002,-0.4952 0.585717,-0.28753 0.87858,-0.91053 0.878591,-1.869 -1.1e-5,-0.9691 -0.260925,-1.73055 -0.782745,-2.28434 -0.521838,-0.56441 -1.23536,-0.84663 -2.140566,-0.84664 -0.905221,10e-6 -1.693289,0.49522 -2.364207,1.48562 -0.670928,0.99042 -1.368475,1.48562 -2.092643,1.48561 -0.159747,10e-6 -0.362089,-0.11713 -0.607027,-0.35143 -0.244942,-0.23428 -0.367412,-0.60169 -0.36741,-1.10224 -2e-6,-0.7774 0.415331,-1.41105 1.246001,-1.90095 1.352492,-0.7987 2.816809,-1.19806 4.392953,-1.19807"
             style="text-align:start;line-height:125%;writing-mode:lr-tb;text-anchor:start;font-family:Averia Serif Libre;-inkscape-font-specification:Averia Serif Libre;fill:#ffffff"
             id="path4873" />
        </g>
      </g>
      <g
         transform="matrix(1.4399776,0,0,1.4399776,35.583937,-372.12218)"
         id="g2998">
        <path
           sodipodi:type="arc"
           sodipodi:ry="16.071428"
           sodipodi:rx="16.071428"
           sodipodi:cy="309.64285"
           sodipodi:cx="92.14286"
           transform="translate(0.32226344,452.33149)"
           stroke="none"
           id="path3000"
           fill-rule="evenodd"
           fill-opacity="1"
           fill="#3333b3"
           d="m 108.21429,309.64285 c 0,8.87601 -7.19542,16.07143 -16.07143,16.07143 -8.876004,0 -16.071428,-7.19542 -16.071428,-16.07143 0,-8.876 7.195424,-16.07143 16.071428,-16.07143 8.87601,0 16.07143,7.19543 16.07143,16.07143 z" />
        <g
           style="font-size:32.71551895000000343px;font-style:normal;font-variant:normal;font-weight:normal;font-stretch:normal;line-height:125%;letter-spacing:0px;word-spacing:0px;fill:#ffffff;fill-opacity:1;stroke:none;font-family:DejaVu Sans;-inkscape-font-specification:DejaVu Sans"
           id="text3002">
          <path
             d="m 98.191937,756.75072 c -0.01066,0.73483 -0.165082,1.26731 -0.463257,1.59744 -0.213005,0.2343 -0.45262,0.35144 -0.718847,0.35143 -0.117158,1e-5 -0.239628,-0.0213 -0.36741,-0.0639 -0.425996,-0.13844 -0.804056,-0.51117 -1.134181,-1.11821 -0.702883,-1.25664 -1.698618,-1.88496 -2.987208,-1.88498 -1.277957,2e-5 -2.263042,0.59107 -2.955259,1.77316 -0.681578,1.18211 -1.022365,2.71033 -1.02236,4.58464 -5e-6,1.86369 0.436628,3.3493 1.309899,4.45685 0.873259,1.10756 2.124583,1.66134 3.753978,1.66134 0.958452,0 1.943537,-0.32481 2.955259,-0.97444 0.585714,-0.37273 1.006372,-0.5591 1.261975,-0.5591 0.255576,0 0.383371,0.1065 0.383385,0.31949 l 0,0.25559 c -1.4e-5,0.53248 -0.559116,1.12353 -1.677309,1.77315 -1.107568,0.63898 -2.247072,0.95846 -3.418516,0.95846 l -0.367411,0 c -2.279017,0 -4.07347,-0.70287 -5.383364,-2.10861 -1.309901,-1.40574 -1.964849,-3.23747 -1.964848,-5.49519 -10e-7,-2.26835 0.628324,-4.14267 1.884976,-5.62298 0.638971,-0.7561 1.464313,-1.36313 2.476028,-1.82108 1.022354,-0.45791 2.087311,-0.68688 3.194875,-0.68689 l 0.367411,0 c 1.629375,1e-5 2.944597,0.30885 3.94567,0.92651 0.617662,0.3834 0.9265,0.9425 0.926514,1.67731"
             style="text-align:start;line-height:125%;writing-mode:lr-tb;text-anchor:start;font-family:Averia Serif Libre;-inkscape-font-specification:Averia Serif Libre;fill:#ffffff"
             id="path4876" />
        </g>
      </g>
      <g
         transform="matrix(1.4399776,0,0,1.4399776,56.292064,-306.96734)"
         id="g3006">
        <path
           sodipodi:type="arc"
           sodipodi:ry="16.071428"
           sodipodi:rx="16.071428"
           sodipodi:cy="309.64285"
           sodipodi:cx="92.14286"
           transform="translate(0.32226344,452.33149)"
           stroke="none"
           id="path3008"
           fill-rule="evenodd"
           fill-opacity="1"
           fill="#3333b3"
           d="m 108.21429,309.64285 c 0,8.87601 -7.19542,16.07143 -16.07143,16.07143 -8.876004,0 -16.071428,-7.19542 -16.071428,-16.07143 0,-8.876 7.195424,-16.07143 16.071428,-16.07143 8.87601,0 16.07143,7.19543 16.07143,16.07143 z" />
        <g
           style="font-size:32.71551895000000343px;font-style:normal;font-variant:normal;font-weight:normal;font-stretch:normal;line-height:125%;letter-spacing:0px;word-spacing:0px;fill:#ffffff;fill-opacity:1;stroke:none;font-family:DejaVu Sans;-inkscape-font-specification:DejaVu Sans"
           id="text3010">
          <path
             d="m 89.725519,767.73357 c -6e-6,1.81043 0.197011,2.96058 0.591051,3.45046 0.59637,0.74547 1.544182,1.11821 2.843439,1.11821 l 0.527154,0 c 0.404675,0 0.883905,-0.15442 1.437694,-0.46326 0.564416,-0.30884 1.017023,-0.75079 1.357822,-1.32587 0.702859,-1.19275 1.054295,-2.65174 1.054309,-4.37698 l 0,-0.19169 -0.01597,-0.1917 c -1.3e-5,-1.84236 -0.356774,-3.30668 -1.070283,-4.39295 -0.702884,-1.09689 -1.640046,-1.64535 -2.81149,-1.64536 l -0.159743,0 c -0.660283,10e-6 -1.315232,0.18106 -1.964848,0.54313 -0.649632,0.35145 -1.107563,0.77211 -1.373797,1.26197 -0.266245,0.47925 -0.399365,2.13526 -0.399359,4.96804 l -0.01597,0.52715 0,0.71885 m -1.996797,5.36739 c -0.830671,0 -1.246004,-0.54313 -1.246001,-1.62939 -3e-6,-0.12779 0.05325,-0.54313 0.159743,-1.246 0.106493,-0.71352 0.159741,-1.87965 0.159744,-3.49839 l 0,-4.95206 0.01597,-0.79871 0,-2.77955 -0.01597,-0.78274 0,-0.78274 -0.03195,-1.16613 c -0.01065,-0.25557 -0.01598,-0.69753 -0.01597,-1.32588 -3e-6,-0.6283 -0.106498,-1.14481 -0.319488,-1.54951 -0.106498,-0.20232 -0.415335,-0.41531 -0.926513,-0.63898 -0.511181,-0.23426 -0.766771,-0.46856 -0.76677,-0.70287 -10e-7,-0.23427 0.127794,-0.41531 0.383385,-0.54313 0.638973,-0.33011 1.677306,-0.49518 3.115003,-0.4952 0.713517,2e-5 1.150149,0.31951 1.309899,0.95846 0.117139,0.45795 0.175712,1.95422 0.175718,4.4888 -6e-6,2.52397 0.212985,3.78594 0.638975,3.78593 0.06389,10e-6 0.591045,-0.18103 1.581463,-0.54313 1.001052,-0.36207 1.959513,-0.54312 2.875387,-0.54313 1.778468,10e-6 3.210835,0.69756 4.297107,2.09264 1.096889,1.39511 1.645339,3.06709 1.645359,5.01596 l 0,0.41533 c -2e-5,1.11821 -0.18106,2.18317 -0.54313,3.19487 -0.681586,1.90628 -1.858364,3.22683 -3.530334,3.96165 -0.937175,0.41533 -1.900961,0.623 -2.891362,0.623 l -0.383385,0 c -0.47924,0 -1.171462,-0.12247 -2.076669,-0.36741 -0.894571,-0.24494 -1.677315,-0.36741 -2.348233,-0.36741 -0.745475,0.11714 -1.166133,0.17572 -1.261975,0.17572"
             style="text-align:start;line-height:125%;writing-mode:lr-tb;text-anchor:start;font-family:Averia Serif Libre;-inkscape-font-specification:Averia Serif Libre;fill:#ffffff"
             id="path4870" />
        </g>
      </g>
    </g>
    <g
       id="g4839"
       transform="translate(22.223356,246.47722)">
      <rect
         ry="28.284271"
         y="129.50502"
         x="387.14285"
         height="59.285709"
         width="396.17838"
         id="rect4837"
         style="fill:#3333b3;fill-opacity:1;fill-rule:evenodd;stroke:none"
         rx="28.284271" />
      <g
         transform="matrix(1.4399776,0,0,1.4399776,276.86095,-932.40793)"
         id="g4811">
        <text
           xml:space="preserve"
           sodipodi:linespacing="125%"
           y="769.59412"
           x="84.022667"
           word-spacing="0px"
           style="font-size:32.71551895px;font-style:normal;font-variant:normal;font-weight:normal;font-stretch:normal;line-height:125%;letter-spacing:0px;word-spacing:0px;fill:#000000;fill-opacity:1;stroke:none;font-family:DejaVu Sans;-inkscape-font-specification:DejaVu Sans"
           line-height="125%"
           letter-spacing="0px"
           id="text4815"
           font-weight="normal"
           font-variant="normal"
           font-style="normal"
           font-stretch="normal"
           font-size="32.71551895px"><tspan
             sodipodi:role="line"
             y="769.59412"
             x="84.022667"
             writing-mode="lr-tb"
             text-align="start"
             style="font-size:32.71551895px;font-style:normal;font-variant:normal;font-weight:normal;font-stretch:normal;text-align:start;line-height:125%;writing-mode:lr-tb;text-anchor:start;fill:#ffffff;font-family:Averia Serif Libre;-inkscape-font-specification:Averia Serif Libre"
             line-height="125%"
             id="tspan4817"
             font-weight="normal"
             font-variant="normal"
             font-style="normal"
             font-stretch="normal"
             font-size="32.71551895px">Averia Serif Libre</tspan></text>
      </g>
    </g>
  </g>
</svg>
